<?xml version="1.0" encoding="UTF-8"?>
<svg width="69px" height="100px" viewBox="0 0 69 100" version="1.1" xmlns="http://www.w3.org/2000/svg" xmlns:xlink="http://www.w3.org/1999/xlink">
    <!-- Generator: Sketch 55.2 (78181) - https://sketchapp.com -->
    <title>VehicleManagement_b_white</title>
    <desc>Created with Sketch.</desc>
    <g id="Page-1" stroke="none" stroke-width="1" fill="none" fill-rule="evenodd">
        <path d="M19.6657459,28.8888889 L10.0601319,28.8888889 C9.11121485,28.8888889 8.31182341,29.6932874 8.31182341,30.6481481 L8.31182341,43.7037037 L5.36730379,43.7037037 L5.36730379,30.6481481 C5.36730379,28.0497689 7.47792662,25.9259259 10.0601319,25.9259259 L18.2818141,25.9259259 C18.7409603,26.8673542 19.2771909,27.7638182 19.8822246,28.6069852 L20.1063334,28.3151455 L22.6942901,24.8015873 C22.3399868,24.135045 22.0216264,23.458168 21.7905592,22.7347884 L17.477298,21.9494048 L16.4092524,21.7427249 L16.4092524,15.2943122 L17.477298,15.0876323 L21.7905592,14.3022487 C22.0267622,13.6098717 22.3399868,12.9019921 22.6942901,12.1941138 L20.1884907,8.55654762 L19.5723106,7.64715608 L24.1731225,3.01752646 L28.691777,6.32440476 C29.3439014,5.97304894 30.0319685,5.64236111 30.7457109,5.41501323 L31.4029697,1.11607143 L31.5672845,0 L38.0577155,0 L38.2220303,1.11607143 L38.8792891,5.41501323 C39.5570873,5.64752778 40.24002,5.97821561 40.933223,6.32440476 L44.5481466,3.67890212 L45.4929562,3.01752646 L46.2734511,3.84424603 L49.3132732,7.0271164 L50.0526894,7.8125 L49.4365093,8.72189153 L46.8074739,12.3594577 C47.1566427,13.0156667 47.4441934,13.7132116 47.6701261,14.4262566 L53.2157476,15.2529762 L53.2157476,21.7427249 L52.147702,21.9494048 L47.7112048,22.7347884 C47.4801376,23.416832 47.1515082,24.1040423 46.8074739,24.8015873 L49.4365093,28.4804894 L49.628729,28.7641775 C50.2805978,27.8755048 50.8553934,26.9260903 51.3431859,25.9259259 L59.3808356,25.9259259 C62.0493065,25.9259259 64.2576962,28.0497689 64.2576962,30.6481481 L64.2576962,43.7037037 L61.3131766,43.7037037 L61.3131766,30.6481481 C61.3131766,29.6932874 60.5425413,28.8888889 59.3808356,28.8888889 L49.7132302,28.8888889 L50.0526894,29.389881 L45.4518775,34.0195106 L40.933223,30.7126323 C40.2810986,31.0639881 39.5930315,31.3946759 38.8792891,31.6220238 L38.0577155,35.9623016 L37.8934008,37.037037 L31.4440484,37.037037 L31.2797337,35.9209656 L30.6224749,31.6220238 C29.9344077,31.3843426 29.2309343,31.0691548 28.5274623,30.7126323 L24.9125387,33.234127 L24.0088078,33.8541667 L19.4079958,29.224537 L19.6657459,28.8888889 Z M33.3402402,39.537037 C39.3903078,39.537037 44.6467362,40.0578711 48.5229195,40.9259259 C50.4610111,41.3599541 52.0367899,41.8981481 53.2617558,42.5462963 C54.4464656,43.1712963 55.4989002,44.0277778 55.6541779,45.4166667 L55.7001861,45.4166667 L55.7001861,45.5555556 L58.1846245,64.4444444 L59.5648681,64.4444444 C60.1629736,64.4444444 60.7495779,64.4965274 61.3131766,64.6296296 L61.3131766,61.4814815 L64.2576962,61.4814815 L64.2576962,66.1111111 C66.0290088,67.5 67.2022158,69.6354163 67.2022158,72.1296296 L67.2022158,85.1851852 C67.2079665,85.2604163 67.2079665,85.3414356 67.2022158,85.4166667 L67.2022158,92.4537037 C67.2022158,92.5 67.2022158,92.5462963 67.2022158,92.5925926 L67.2022158,95.5555556 C67.2022158,97.9918978 65.2066133,100 62.7854364,100 L56.8963972,100 C54.4752203,100 52.4796177,97.9918978 52.4796177,95.5555556 L52.4796177,92.5925926 L17.1453823,92.5925926 L17.1453823,95.5555556 C17.1453823,97.9918978 15.1497797,100 12.7286028,100 L6.8395636,100 C4.4183867,100 2.42278417,97.9918978 2.42278417,95.5555556 L2.42278417,92.5 C2.41703352,92.4363422 2.41703352,92.3784726 2.42278417,92.3148148 L2.42278417,85.3240741 C2.42278417,85.2777778 2.42278417,85.2314815 2.42278417,85.1851852 L2.42278417,72.1296296 C2.42278417,69.6354163 3.5959912,67.5 5.36730379,66.1111111 L5.36730379,61.4814815 L8.31182341,61.4814815 L8.31182341,64.6296296 C8.8754236,64.4965274 9.46202639,64.4444444 10.0601319,64.4444444 L11.4403755,64.4444444 L13.9248139,45.5555556 L13.9248139,45.4166667 L13.9708221,45.4166667 C14.091593,44.2881941 14.7817148,43.3159719 15.7191306,42.6388889 C16.6968038,41.9328711 17.9390231,41.4178237 19.5378045,40.9722222 C22.7296181,40.0810193 27.2901725,39.537037 33.3402402,39.537037 Z M33.3402402,42.5 C27.4627037,42.5 23.0861803,43.0208341 20.3199425,43.7962963 C18.9339483,44.1840281 17.9620271,44.6527778 17.421431,45.0462963 C16.8808363,45.4398148 16.8750842,45.6307867 16.8693336,45.6944444 C16.8578323,45.7407407 16.8405789,45.787037 16.8233254,45.8333333 L15.3510656,57.2222222 C17.1798891,57.552083 23.3564783,58.5185185 34.8125,58.5185185 C46.2685217,58.5185185 52.4451124,57.552083 54.2739344,57.2222222 L52.8016746,45.8333333 C52.7844211,45.8159719 52.7729199,45.8043985 52.7556664,45.787037 C52.7211611,45.7696756 52.5601327,45.4745378 51.9275203,45.1388889 C51.0821207,44.6932874 49.6616212,44.2418978 47.8788058,43.8425926 C44.3189272,43.0439822 39.2177781,42.5 33.3402402,42.5 Z M4.17109269,45.0462963 L6.56351488,45.0462963 C8.5131093,45.0462963 9.92210758,46.6550933 9.92210758,48.6111111 L9.92210758,56.7592593 C9.92210758,58.7210652 8.32332618,60.1388889 6.37948241,60.1388889 L4.17109269,60.1388889 C2.22149828,60.1388889 0.8125,58.5300933 0.8125,56.5740741 L0.8125,48.4259259 C0.8125,47.447917 1.24382648,46.6493052 1.82467862,46.0648148 C2.40553076,45.4803244 3.19917155,45.0462963 4.17109269,45.0462963 Z M63.2455176,45.2314815 L65.4539073,45.2314815 C67.3977511,45.2314815 68.8125,46.8287037 68.8125,48.6111111 L68.8125,56.7592593 C68.8125,57.7372681 68.3811735,58.53588 67.8003214,59.1203704 C67.2194692,59.7048607 66.4258285,60.1388889 65.4539073,60.1388889 L63.2455176,60.1388889 C61.3016753,60.1388889 59.8869249,58.5416667 59.8869249,56.7592593 L59.8869249,48.6111111 C59.8869249,46.6550933 61.474205,45.2314815 63.2455176,45.2314815 Z M4.17109269,48.287037 C4.15383928,48.2986119 4.15383928,48.3506948 4.12508457,48.3796296 C4.09632987,48.4085644 4.0445711,48.4085644 4.03306834,48.4259259 C4.03306834,48.4722222 4.02156704,48.483797 4.03306834,48.4722222 L4.03306834,56.5740741 C4.03306834,56.6956015 4.34937452,56.8981481 4.17109269,56.8981481 L6.37948241,56.8981481 C6.50025335,56.8981481 6.70153924,56.5798607 6.70153924,56.7592593 L6.70153924,48.6111111 C6.70153924,48.4895837 6.38523306,48.287037 6.56351488,48.287037 L4.21710081,48.287037 C4.22860358,48.2754637 4.21710081,48.287037 4.17109269,48.287037 Z M63.2455176,48.4259259 C63.2455176,48.4259259 63.0614851,48.4895837 63.0614851,48.6111111 L63.0614851,56.7592593 C63.0614851,56.7592593 63.1247466,56.8981481 63.2455176,56.8981481 L65.4078992,56.8981481 C65.419402,56.8865748 65.459658,56.8460652 65.4999154,56.8055556 C65.5401729,56.7650459 65.5804304,56.7245378 65.5919317,56.712963 L65.5919317,48.6111111 C65.5919317,48.6111111 65.5746783,48.4259259 65.4539073,48.4259259 L63.2455176,48.4259259 Z M14.9830007,60.1388889 L14.2008627,66.1111111 C14.1088464,66.8576385 13.4762355,67.4131941 12.7286028,67.4074074 L10.0601319,67.4074074 C7.44341979,67.4074074 5.36730379,69.3576385 5.36730379,72.1296296 L5.36730379,82.2222222 L64.2576962,82.2222222 L64.2576962,72.1296296 C64.2576962,69.3576385 62.1815802,67.4074074 59.5648681,67.4074074 L56.8963972,67.4074074 C56.148766,67.4131941 55.5161536,66.8576385 55.4241373,66.1111111 L54.6419993,60.1388889 C52.2955853,60.5439822 45.7739351,61.4814815 34.8125,61.4814815 C23.8510664,61.4814815 17.3294147,60.5439822 14.9830007,60.1388889 Z M26.8530954,64.4907407 L42.7719046,64.4907407 C44.8365193,64.4907407 46.5445704,66.2094904 46.5445704,68.287037 L46.5445704,75.4166667 C46.5445704,77.4942133 44.8365193,79.212963 42.7719046,79.212963 L26.8530954,79.212963 C24.7884807,79.212963 23.0804296,77.4942133 23.0804296,75.4166667 L23.0804296,68.287037 C23.0804296,66.2094904 24.7884807,64.4907407 26.8530954,64.4907407 Z M26.8530954,67.3611111 C26.2664926,67.3611111 25.932933,67.69676 25.932933,68.287037 L25.932933,75.4166667 C25.932933,76.0069452 26.2664926,76.3425926 26.8530954,76.3425926 L42.7719046,76.3425926 C43.3585089,76.3425926 43.692067,76.0069452 43.692067,75.4166667 L43.692067,68.287037 C43.692067,67.69676 43.3585089,67.3611111 42.7719046,67.3611111 L26.8530954,67.3611111 Z M10.7962618,70.3703704 L17.6054635,70.3703704 C18.9281976,70.3703704 20.0899019,71.5393526 20.0899019,72.8703704 L20.0899019,76.7592593 C20.0899019,78.0902785 18.9281976,79.2592593 17.6054635,79.2592593 L10.7962618,79.2592593 C9.47352915,79.2592593 8.31182341,78.0902785 8.31182341,76.7592593 L8.31182341,72.8703704 C8.31182341,71.5393526 9.47352915,70.3703704 10.7962618,70.3703704 Z M52.0195365,70.3703704 L58.8287382,70.3703704 C60.1514723,70.3703704 61.3131766,71.5393526 61.3131766,72.8703704 L61.3131766,76.7592593 C61.3131766,78.0902785 60.1514723,79.2592593 58.8287382,79.2592593 L52.0195365,79.2592593 C50.6968038,79.2592593 49.5350981,78.0902785 49.5350981,76.7592593 L49.5350981,72.8703704 C49.5350981,71.5393526 50.6968038,70.3703704 52.0195365,70.3703704 Z M11.256343,73.3333333 L11.256343,76.2962963 L17.1453823,76.2962963 L17.1453823,73.3333333 L11.256343,73.3333333 Z M52.4796177,73.3333333 L52.4796177,76.2962963 L58.368657,76.2962963 L58.368657,73.3333333 L52.4796177,73.3333333 Z M5.36730379,85.1851852 C5.37305444,85.2604163 5.37305444,85.3414356 5.36730379,85.4166667 L5.36730379,89.6296296 L64.2576962,89.6296296 L64.2576962,85.3240741 C64.2576962,85.2777778 64.2576962,85.2314815 64.2576962,85.1851852 L5.36730379,85.1851852 Z M5.36730379,92.5925926 L5.36730379,95.5555556 C5.36730379,96.3773156 6.02292022,97.037037 6.8395636,97.037037 L12.7286028,97.037037 C13.5452477,97.037037 14.2008627,96.3773156 14.2008627,95.5555556 L14.2008627,92.5925926 L5.36730379,92.5925926 Z M55.4241373,92.5925926 L55.4241373,95.5555556 C55.4241373,96.3773156 56.0797538,97.037037 56.8963972,97.037037 L62.7854364,97.037037 C63.6020813,97.037037 64.2576962,96.3773156 64.2576962,95.5555556 L64.2576962,92.5925926 L55.4241373,92.5925926 Z M33.45932,2.17864924 L32.8391125,6.13123336 L32.715071,7.00496248 L31.8467806,7.21299322 C30.8389431,7.4366266 29.7380751,7.90469511 28.7870903,8.50278383 L28.0428413,8.96045146 L27.3399395,8.46117768 L24.0321662,6.04802106 L22.5436682,7.50423626 L24.8177624,10.8743343 L25.3139284,11.5816388 L24.8591095,12.3305495 C24.3060909,13.2198813 23.9339664,14.3380468 23.5360002,15.5342229 L23.2879172,16.2415275 L22.5023211,16.4079521 L18.5743403,17.1152566 L18.5743403,19.195564 L22.5023211,19.9028686 L23.3706116,20.0692931 L23.5773474,20.9430223 C23.7995887,21.9571725 24.2647437,23.0233297 24.8591095,23.9802711 L25.3552755,24.7291818 L24.7764152,25.4780925 L22.4196267,28.6817659 L23.8667776,30.1379811 L27.215898,27.8496429 L27.9187998,27.3503692 L28.6630488,27.8080368 C29.5468448,28.3645194 30.6580502,28.7389747 31.8467806,29.1394336 L32.5910295,29.3890704 L33.3352785,34.1321714 L35.3612897,34.1321714 L36.0641915,30.1795873 L36.2295801,29.3058581 L37.0565235,29.0978274 C38.064361,28.874194 39.1652289,28.4061255 40.1162137,27.8080368 L40.8604627,27.3503692 L41.5633645,27.8496429 L44.8711378,30.2627996 L46.3596358,28.8065844 L43.9615002,25.4364863 L43.423987,24.7291818 L43.920153,23.9802711 C44.4731717,23.0909394 44.8452962,21.9727751 45.2432623,20.7765977 L45.4913453,20.027687 L46.2769414,19.9028686 L50.3289637,19.195564 L50.3289637,17.1568627 L46.2769414,16.5327705 L45.408651,16.4079521 L45.2019151,15.5342229 C44.9796738,14.5200727 44.5145188,13.4123094 43.920153,12.4553679 L43.423987,11.7064573 L43.9615002,10.9991527 L46.3596358,7.62905471 L44.8711378,6.04802106 L41.5633645,8.46117768 L40.8604627,8.96045146 L40.1162137,8.50278383 C39.2324177,7.94630126 38.1212136,7.57184592 36.932482,7.17138707 L36.188233,6.92175018 L35.443984,2.17864924 L33.45932,2.17864924 Z M34.451652,11.6194626 C38.018973,11.6194626 40.9469159,14.565745 40.9469159,18.1554103 C40.9469159,21.7450757 38.018973,24.691358 34.451652,24.691358 C30.884331,24.691358 27.9563881,21.7450757 27.9563881,18.1554103 C27.9563881,14.565745 30.884331,11.6194626 34.451652,11.6194626 Z M34.451652,14.5243282 C32.4594704,14.5243282 30.8431721,16.1507504 30.8431721,18.1554103 C30.8431721,20.1600702 32.4594704,21.7864924 34.451652,21.7864924 C36.4438336,21.7864924 38.0601319,20.1600702 38.0601319,18.1554103 C38.0601319,16.1507504 36.4438336,14.5243282 34.451652,14.5243282 Z" id="VehicleManagement_b_white" fill="#FFFFFF" fill-rule="nonzero"></path>
    </g>
</svg>